{
  "db": {
    "name": "db",
    "connector": "memory"
  },
  "BlogDs": {
    "host": "localhost",
    "port": 27017,
    "url": "",
    "database": "blog",
    "name": "BlogDs",
    "connector": "mongodb"
  }
}
