{
  "_meta": {
    "sources": [
      "loopback/common/models",
      "loopback/server/models",
      "../common/models",
      "./models"
    ],
    "mixins": [
      "loopback/common/mixins",
      "loopback/server/mixins",
      "../common/mixins",
      "./mixins"
    ]
  },
  "User": {
    "dataSource": "db",
    "public": false
  },
  "AccessToken": {
    "dataSource": "db",
    "public": false
  },
  "ACL": {
    "dataSource": "db",
    "public": false
  },
  "RoleMapping": {
    "dataSource": "db",
    "public": false
  },
  "Role": {
    "dataSource": "db",
    "public": false
  },
  "user": {
    "dataSource": "BlogDs",
    "public": true,
    "options": {
      "remoting": {
        "sharedMethods": {
          "*": false,
          "login": true,
          "logout": true,
          "create": true,
          "findById": true,
          "updateAttributes": true
        }
      }
    }
  },
  "post": {
    "dataSource": "BlogDs",
    "public": true,
    "options": {
      "remoting": {
        "sharedMethods": {
          "*": false,
          "create": true,
          "findById": true,
          "updateAttributes": true,
          "deleteById": true,
          "search": true
        }
      }
    }
  }
}
